<svg id="default_event_image" data-name="default event image" xmlns="http://www.w3.org/2000/svg" xmlns:xlink="http://www.w3.org/1999/xlink" width="608" height="370" viewBox="0 0 608 370">
  <defs>
    <linearGradient id="linear-gradient" x1="0.019" x2="1" y2="1" gradientUnits="objectBoundingBox">
      <stop offset="0" stop-color="#720045"/>
      <stop offset="1" stop-color="#5e0961"/>
    </linearGradient>
  </defs>
  <rect id="Rectangle" width="608" height="370" fill="url(#linear-gradient)"/>
  <g id="LogoWhite" transform="translate(156 34)">
    <path id="Shape" d="M165.658,253.279h0c-1.129-.85-2.545-.868-4.043-.888a12.841,12.841,0,0,1-2.779-.239,17.116,17.116,0,0,1-7.651-7.957,46.994,46.994,0,0,1-3.2-10.182l-.1-.45a178.155,178.155,0,0,1-.408-22.392c.089-3.885.18-7.9.149-11.939l.478-30.506c0-.818.069-1.65.136-2.455a14.108,14.108,0,0,0-.136-4.742l.659-35.161.011-1.947c.048-16.125-.7-46.081-2.926-57.822-.977-.55-.786-1.419-.6-2.26a3.277,3.277,0,0,0,.124-1.059,3.446,3.446,0,0,1,1.023-.976,6.178,6.178,0,0,0,.685-.552,1.113,1.113,0,0,1,.368-.067,1.59,1.59,0,0,1,1.079.639l.039.041c.294.308.573.6.936.6a1.232,1.232,0,0,0,.807-.416,4.371,4.371,0,0,1,2.245,1.054,5.063,5.063,0,0,0,2.539,1.178,9.879,9.879,0,0,0,.953,2.475,7.706,7.706,0,0,1,1.05,3.349,2.022,2.022,0,0,1,1,2.057,2.112,2.112,0,0,0,.849,1.994,3.172,3.172,0,0,1,.364,2.122c-.052.887-.1,1.725.721,2.294a30.725,30.725,0,0,0,1.022,5.808,29.526,29.526,0,0,1,.939,5.111c.56.409.379.932.2,1.439a2.262,2.262,0,0,0-.166.7l.133.375a3.7,3.7,0,0,1,.286,2.388c.456,2.217.649,12.833.8,21.364.087,4.774.162,8.894.263,10.11l.347.255c5.611-5.353,10.313-11.874,14.861-18.18,1.492-2.068,3.031-4.2,4.567-6.244a3.525,3.525,0,0,1,2.153-.876,4.832,4.832,0,0,0,1.627-.47.906.906,0,0,1,.288-.059c.229,0,.28.164.339.354a.574.574,0,0,0,.361.458l.943,0c1.857.015,3.751.142,5.02.965a.916.916,0,0,1,.51-.177,1.44,1.44,0,0,1,.909.536,2.921,2.921,0,0,0,.49.409,8.471,8.471,0,0,1-4.934,6.7,42.984,42.984,0,0,0-6.7,8.2c-1.231,1.79-2.5,3.641-3.927,5.346a64.628,64.628,0,0,0-6.205,9.553l-.01.017c-.342.6-.7,1.229-1.05,1.843a12.21,12.21,0,0,1-2.026,2.129,9.161,9.161,0,0,0-2.194,2.481c-.866.634-2.733,3.575-2.348,4.5,0-.01.006-.015.016-.015.872,0,38.933,35.2,39.318,35.559-.574.207-.4.711-.218,1.244a1.585,1.585,0,0,1,.088,1.319,8.133,8.133,0,0,1-.8.862,8.618,8.618,0,0,0-.785.846c-.18.221-.632.249-1.006.249-.205,0-.425-.01-.619-.019h-.016c-.205-.009-.4-.018-.571-.018a1.733,1.733,0,0,0-.555.063,3.639,3.639,0,0,0-2.691-1.115c-1.152-.146-2.24-.283-2.575-1.518a5.207,5.207,0,0,1-2.561-1.181,4.925,4.925,0,0,0-2.538-1.151l-11.661-10.029c-5.1-4.4-8.746-7.584-10.849-9.457a1.47,1.47,0,0,0-.912-.454.638.638,0,0,0-.477.213,1.734,1.734,0,0,0-.353,1.235,108.654,108.654,0,0,1,.813,13.494c.028,1.733.057,3.521.122,5.592,1.014,19.291,1.507,36.21,1.507,51.721l.21,1.031c.316,1.6.549,3.43-.707,4.914a3.508,3.508,0,0,1,.846,2.652,5.7,5.7,0,0,0,.256,1.764,16.431,16.431,0,0,1,.79,5.514,8.8,8.8,0,0,1-1.67,5.1,3.473,3.473,0,0,1-2.126.615,7.617,7.617,0,0,0-1.158.144Zm64.307-37.755a4.645,4.645,0,0,1-3.9-1.574,7.2,7.2,0,0,1-1.2-4.569V198.436a6.679,6.679,0,0,1,1.412-4.594,4.986,4.986,0,0,1,3.887-1.508c3.4,0,5.2,2.115,5.2,6.115v10.884C235.359,213.5,233.595,215.524,229.965,215.524Zm.129-20.433c-1.439,0-2.139,1.019-2.139,3.114v11.5c0,2.049.723,3.088,2.149,3.088a1.842,1.842,0,0,0,1.628-.728,4.257,4.257,0,0,0,.535-2.434V198.191C232.267,196.105,231.557,195.091,230.094,195.091Zm-16.458,20.433c-3.3,0-4.931-1.742-4.986-5.326v-1.509h3.034v1.358c0,1.94.667,2.884,2.038,2.884,1.326,0,1.943-.993,1.943-3.124,0-2.456-.5-3.342-2.957-5.266l-.442-.349c-2.026-1.621-3.256-2.838-3.256-6.077a7.386,7.386,0,0,1,.92-4,4.2,4.2,0,0,1,3.8-1.808h.02a4.188,4.188,0,0,1,3.73,1.665,6.43,6.43,0,0,1,.853,3.626v1.138h-3.01v-1.058l-.005-.367c-.053-1.7-.524-2.39-1.626-2.39s-1.619.792-1.65,2.567l0,.184c0,1.714.313,2.522,2.166,3.932l.211.158c3.281,2.44,4.3,3.806,4.3,7.6l-.005.389C218.611,213.582,216.9,215.524,213.636,215.524Zm-81.638,0a4.645,4.645,0,0,1-3.9-1.574,7.2,7.2,0,0,1-1.2-4.569V198.436a6.679,6.679,0,0,1,1.412-4.594,4.986,4.986,0,0,1,3.887-1.508c3.4,0,5.2,2.115,5.2,6.115v10.884C137.392,213.5,135.628,215.524,132,215.524Zm.129-20.433c-1.439,0-2.139,1.019-2.139,3.114v11.5c0,2.049.723,3.088,2.149,3.088a1.843,1.843,0,0,0,1.629-.728,4.258,4.258,0,0,0,.534-2.434V198.191C134.3,196.105,133.59,195.091,132.128,195.091ZM87.97,215.524c-3.3,0-4.932-1.742-4.987-5.326v-1.509h3.033v1.358c0,1.94.667,2.884,2.038,2.884,1.326,0,1.943-.993,1.943-3.124,0-2.456-.5-3.342-2.957-5.266l-.442-.349c-2.026-1.621-3.257-2.839-3.257-6.077a7.384,7.384,0,0,1,.921-4,4.2,4.2,0,0,1,3.8-1.808h.02a4.188,4.188,0,0,1,3.73,1.665,6.43,6.43,0,0,1,.853,3.626v1.138h-3.01v-1.058l-.005-.367c-.053-1.7-.523-2.39-1.625-2.39s-1.62.792-1.651,2.567l0,.184c0,1.714.313,2.523,2.166,3.932l.211.158c3.281,2.439,4.3,3.805,4.3,7.6l-.005.389C92.943,213.582,91.235,215.524,87.97,215.524Zm-32.528,0c-1.9,0-3.2-.576-3.964-1.762a7.868,7.868,0,0,1-.908-4.3V198.043a6.447,6.447,0,0,1,1.2-4.18,4.552,4.552,0,0,1,3.715-1.529,4.287,4.287,0,0,1,3.926,1.759,7.329,7.329,0,0,1,.885,4.049v.955H57.246v-1.266l-.006-.352c-.056-1.674-.585-2.388-1.771-2.388-1.232,0-1.772.772-1.805,2.58l0,12.025c0,2.14.574,3.094,1.861,3.094,1.495,0,1.8-1.233,1.8-3.084v-1.128H60.4v.83C60.4,212.255,59.837,215.524,55.442,215.524Zm189.746-.317h-3.033V192.651h4.463c3.668,0,5.3,1.645,5.3,5.332v.93c0,2.553-.775,4.143-2.3,4.724,1.321.56,2.086,1.5,2.086,4.625v2.113a38.744,38.744,0,0,0,.215,4.827h-2.939a31.058,31.058,0,0,1-.241-4.693l0-2.043c0-2.74-.328-3.536-2.5-3.536h-1.059v10.273Zm0-20.034v7.239h1.086c1.923,0,2.6-.879,2.6-3.358v-.871c0-1.858-.426-3.01-2.546-3.01Zm-64.135,20.034h-3.034V192.651h4.464c3.668,0,5.3,1.645,5.3,5.332v.93c0,2.554-.775,4.143-2.3,4.724,1.321.56,2.086,1.5,2.086,4.625v2.455a35.934,35.934,0,0,0,.212,4.486h-2.938a31.065,31.065,0,0,1-.241-4.693l.005-2.043c0-2.74-.328-3.536-2.5-3.536h-1.059v10.273Zm0-20.034v7.239h1.085c1.922,0,2.6-.879,2.6-3.358v-.871c0-1.858-.426-3.01-2.545-3.01Zm-68.527,20.034H109.68V192.651h3.55l.375,1.349c1.2,4.389,3.575,13.815,3.841,15.143h.044c-.136-2.645-.166-5.518-.168-9.019v-7.473h2.821V215.2h-3.42l-.337-1.254c-1.186-4.485-3.738-14.668-4-15.781h-.033l.048.93c.106,2.36.124,5.153.127,7.819v8.286Zm-43.738,0H65.706l3.675-22.554h4.3L77.5,215.2H74.326l-1.005-6.524H69.7l-.914,6.524Zm2.651-19.71-.024.375c-.133,1.717-.633,5.213-1.074,8.3-.085.6-.168,1.179-.247,1.732h2.858l-.5-3.465c-.454-3.183-.739-5.388-.9-6.94Zm192.46,19.71h-3.035v-19.75h-3.644v-2.8h10.326v2.8H263.9V215.2Zm-60.994,0h-8.385V192.651h8.331v2.8h-5.3v6.406h5.016v2.781h-5.016v7.782H203.3L202.9,215.2Zm-100.484,0H99.386V192.651h3.034V215.2ZM35.951,200.581a3.9,3.9,0,0,1-.667-.059,9.4,9.4,0,0,0-4.4-1.108,10.74,10.74,0,0,1-4.216-.948,21.873,21.873,0,0,0-4.393-.351c-3.593-.07-7.666-.149-8.835-2.916a48.23,48.23,0,0,1-2.513-6.286c-.071-.21-.123-.362-.14-.406l-.005-.012.1.014a1.442,1.442,0,0,0,.152.008.537.537,0,0,0,.439-.152.3.3,0,0,0,.029-.279c.489-.966-6.734-45.214-6.807-45.661l-.052-.409h.512a35.315,35.315,0,0,0-.287-8.771,45.482,45.482,0,0,1-.447-7.288,1,1,0,0,0-.969-.688,1.154,1.154,0,0,0-.3.039l-.423.649a2.5,2.5,0,0,0-.055-2.037,2.678,2.678,0,0,1-.147-1.778l.052-.113-.013.075a4.654,4.654,0,0,0,.586,2.754.621.621,0,0,0,.252.065c.235,0,.33-.22.422-.433a1,1,0,0,1,.188-.326,1.3,1.3,0,0,1-.16-1.575,1.131,1.131,0,0,0-.318-1.572l.193-.717a3.79,3.79,0,0,1,.213-.653c0-.035-.018-.052-.045-.052a.749.749,0,0,0-.258.128c-.065.04-.138.085-.22.13a1.8,1.8,0,0,1-.857.258c-.036,0-.072,0-.107,0l.006-.4c.045-1.631.3-5.445.3-5.483.049.272.105.416.164.416a.059.059,0,0,0,.042-.023,15.821,15.821,0,0,0,.491-4.3,20.754,20.754,0,0,1-.25-4.335,13.7,13.7,0,0,0-.8-5.945l0-.3c.012-.707.092-2.367.567-2.5.48-.838-.107-2.235-.513-2.763-.011,0-.023-.011-.035-.029C1.928,93.706.467,79.658.091,62.838-.25,47.6.207,26.552,4.321,12.856,5.777,8.7,9.334,3.333,12.023.107A14.6,14.6,0,0,1,13.725,0a7.464,7.464,0,0,1,6.609,3.381l.606,1.282c.295,7.922.416,15.8.533,23.428.188,12.211.366,23.742,1.189,35.648l-.014,10.945,5.1,90.094.642,2.341L28.668,166c3.207-12.571,13.826-49.724,16.358-58.094a6.53,6.53,0,0,0-.95-4.379,10.287,10.287,0,0,1-.959-2.5,3.772,3.772,0,0,1,.556-.257,1.646,1.646,0,0,0,.931-.64,3.266,3.266,0,0,1,.053-2.556,1.3,1.3,0,0,1,1.116-.49l.115,0a8.874,8.874,0,0,0,4.073-2.161c.236-.187.5-.4.771-.6,2.351-.544,4.677-1.33,6.926-2.089,4.179-1.411,8.5-2.871,13.211-2.871.442,0,.888.013,1.325.038.986.483.827,1.325.674,2.138a1.914,1.914,0,0,0,.086,1.511,1.876,1.876,0,0,0,1.367.557c.636,1.815-.383,3.284-1.37,4.7a11.391,11.391,0,0,0-1.308,2.22,97.464,97.464,0,0,0,.3,15.472c.274,3.828.558,7.787.511,11.807.107,2.731.156,5.483.209,8.4.161,8.944.327,18.192,2.23,26.359a.52.52,0,0,0,.362.186c.217,0,.4-.2.6-.409s.424-.454.691-.454c1.8-2.194,3.565-6.514,5.234-12.839,1.432-5.427,2.839-12.5,4.184-21.031,2.463-15.62,4.3-33.34,5.64-46.278.923-8.907,1.59-15.341,2.095-17.718l5.9-3.913c0,1.134,2.139,1.542,4.207,1.937,1.629.311,3.168.6,3.664,1.227.23.895-1.859,20.175-4.563,42.1-3.206,26-5.889,44.66-7.177,49.921a45.618,45.618,0,0,1-3.287,9.293,27.287,27.287,0,0,1-5.462,7.659A12.093,12.093,0,0,1,79.27,174.6a46.341,46.341,0,0,1-8.427-1.09,50.906,50.906,0,0,0-7.254-1.035c-3.154-.818-4.108-3.291-5.118-5.91a16.818,16.818,0,0,0-2.183-4.342l-.842-17.3c-.93,3.388-1.842,8.175-2.9,13.718-1.387,7.286-2.96,15.543-5.019,22.883-2.386,8.5-4.969,14.1-7.9,17.114l-.578.5A4.78,4.78,0,0,1,35.951,200.581Zm208.558-21.19a2.55,2.55,0,0,1-1.234-.441c.056-1.316-.942-1.858-1.906-2.383-.912-.5-1.855-1.01-1.855-2.18a2.707,2.707,0,0,1-1.162-1.353c-.308-.584-.6-1.135-1.277-1.216a9.508,9.508,0,0,0-1.551-1.419,6.458,6.458,0,0,1-1.99-2.139,16.232,16.232,0,0,1-1.751-6.3c-.075-.564-.153-1.147-.247-1.716a3.8,3.8,0,0,0,.361-2.155,6.207,6.207,0,0,1,.078-1.456l.7-.191c1.832-5.645,2.918-11.932,3.521-20.384,1.944-8.715,3.28-17.5,4.695-26.811l.029-.188.251-1.652a47.783,47.783,0,0,0-7.633,7.307,3.99,3.99,0,0,0-1.193,3.162,4.227,4.227,0,0,1-.566,2.28l-2.037.932-.72-.357a4.844,4.844,0,0,0-1.881-.584,1.581,1.581,0,0,0-.17.009,8.781,8.781,0,0,1-2.081-1.461,7.141,7.141,0,0,0-2.1-1.421l-.1-.317c-.061-.183-.127-.369-.2-.567l0-.006c-.469-1.319-1-2.814-.067-3.7,2.517-2.236,5.007-4.606,7.415-6.9a154.558,154.558,0,0,1,14.948-13.048l.526-1.586a25.65,25.65,0,0,0,1.234-4.95,2.018,2.018,0,0,1,.55-.077,4.056,4.056,0,0,1,2.036.793l.077.048a3.672,3.672,0,0,0,1.793.745,1.941,1.941,0,0,0,1.507-.924,46.926,46.926,0,0,1,23.405-8.946A9.274,9.274,0,0,0,277.85,78c.363,0,.733-.011,1.091-.022h.016c.365-.011.739-.022,1.106-.022a10.079,10.079,0,0,1,1.771.132,3.826,3.826,0,0,0,1.647.267h.258a2.513,2.513,0,0,1,1.985.606,1.051,1.051,0,0,1,.3-.045,1.51,1.51,0,0,1,.911.423l.02.016a1.41,1.41,0,0,0,.843.408.952.952,0,0,0,.44-.117c2.682,1.3,5.5,3.114,6.074,6.684A13.35,13.35,0,0,1,292.6,95.2a43.252,43.252,0,0,1-5.518,7.336c-1.081,1.244-2.1,2.419-2.992,3.6-6.4,6.14-13.027,12.077-19.431,17.819-4.444,3.985-9.039,8.1-13.459,12.2l-3.852,27.661.093.7c-.084.573-.212,1.143-.336,1.694-.406,1.81-.79,3.52.186,5.493-.471.246-.474.7-.478,1.131a1.76,1.76,0,0,1-.107.735,1.789,1.789,0,0,1,.353,1.689,2.131,2.131,0,0,0,.048,1.192,2.946,2.946,0,0,0-1.318,1.648C245.469,178.79,245.192,179.392,244.509,179.392Zm37.067-95.518a23.052,23.052,0,0,0-7.522,1.278,39.53,39.53,0,0,0-7.493,3.329c-1.118.592-2.273,1.2-3.421,1.747a13.694,13.694,0,0,1-2.764,2.145c-1.845,1.195-3.752,2.43-4.077,5.107l-.37,2.385c-.764,5.035-2.021,13.992-1.85,17.4l-.1.227a1.876,1.876,0,0,0,.1,2,85.705,85.705,0,0,0,8.645-8.4,91.9,91.9,0,0,1,7.774-7.653l1.408-1.644c6.584-7.73,7.569-9.654,10.149-16.991.1-.333-.125-.56-.321-.761a2.028,2.028,0,0,1-.157-.172ZM136.429,169.805a18.05,18.05,0,0,1-2.548-.247c-.3-.044-.586-.086-.82-.112-.392-.116-.865-.27-1.366-.433l-.008,0a30.974,30.974,0,0,0-3.156-.915c-.694-.228-1.5-.434-2.352-.651a25.152,25.152,0,0,1-4.014-1.253c-.145-.081-.108-.222-.068-.371s.081-.308-.078-.4a6.326,6.326,0,0,0-.917-.212,4.516,4.516,0,0,1-1.3-.366A46.826,46.826,0,0,1,106.663,154l-.619-.624a12.255,12.255,0,0,1-2.256-3.026l-.132-.272a12.8,12.8,0,0,1-.645-1.525,18.366,18.366,0,0,1-1.43-7.026c.023-.63.024-1.326.025-2.064a27.233,27.233,0,0,1,.231-4.465,3.5,3.5,0,0,0-.035-1.239,3.017,3.017,0,0,1,0-1.338,1.629,1.629,0,0,1,.534-.634,1.611,1.611,0,0,0,.564-.694l.53-1.571a27.778,27.778,0,0,1,4.075-8.441,6.782,6.782,0,0,1,1.333-1.03,6.956,6.956,0,0,0,1.161-.872c.736-.836,1.535-1.587,2.308-2.314l.117-.11a9.5,9.5,0,0,1,6.393-2.774,8.434,8.434,0,0,1,6.009,2.637,9.528,9.528,0,0,1,2.731,6.006,14.7,14.7,0,0,1,.008,1.6l-.028.4a10.59,10.59,0,0,0,.028,1.291,10.215,10.215,0,0,1,.03,1.031,26.227,26.227,0,0,1-1.058,4.958c-.13.446-.264.908-.393,1.391a29.112,29.112,0,0,1-1.725,5.359,6.642,6.642,0,0,1-.925,1.39,6.079,6.079,0,0,0-.725,1.053,5.6,5.6,0,0,0-.429,1.26,3.84,3.84,0,0,1-.434,1.169c-1.16,1.691-5.458,4.5-5.5,4.527a26.606,26.606,0,0,0,4.292,6.082,13.2,13.2,0,0,1,1.231,1.635,9.417,9.417,0,0,0,1.832,2.179,3.916,3.916,0,0,0,.817.308,4.457,4.457,0,0,1,.648.232,3.451,3.451,0,0,0,.313.282,11.185,11.185,0,0,1,1.438,1.556,8.915,8.915,0,0,0,1.772,1.8,8.231,8.231,0,0,0,1.914.98,10.091,10.091,0,0,1,1.534.73c.82.593,1.665,1.169,2.442,1.666a14.111,14.111,0,0,0,4.272,1.682c.545.17,1.112.321,1.661.466.466.123.9.239,1.329.366-.621.76-1.889.954-3.135,1.088A3.1,3.1,0,0,1,136.429,169.805Zm-18.415-46.921h0c-1.26,0-2.6,1.292-3.59,3.456l-.36.793a24.309,24.309,0,0,0-2.476,9.771v.009c-.041.49-.084,1-.136,1.551l1.248,1.674a2.256,2.256,0,0,0,.507.059c1.084,0,2.086-.8,3.062-2.458a28.65,28.65,0,0,0,2.467-6.224,17.978,17.978,0,0,0,.558-1.805v-.006c.052-.191.1-.38.156-.566a12.929,12.929,0,0,0,.531-3.029,3.721,3.721,0,0,0-.784-2.717,1.621,1.621,0,0,0-1.183-.51Zm178.477,44.3h0c-.3-.02-7.27-.482-9.712-.482-.169,0-.314,0-.432.007a2.9,2.9,0,0,1-.675.084c-1.469,0-2.339-1.285-3.108-2.418a9.424,9.424,0,0,0-.915-1.214l-.8-1.581c-2.268-4.489-4.354-8.928-4.955-13.873a21.243,21.243,0,0,0-1.673,2.827,25.213,25.213,0,0,1-1.63,2.8c-2.1,3.23-4.571,5.164-7.338,5.75-.54.035-1.073.052-1.584.052a17.547,17.547,0,0,1-3.847-.392,1.939,1.939,0,0,1-.9-1.289,1.855,1.855,0,0,0-.676-1.105,1.4,1.4,0,0,0-1.067-1.264,4.74,4.74,0,0,1-2.11-4.76,19.832,19.832,0,0,1,1.778-5.466c.316-.727.614-1.414.848-2.051a49.046,49.046,0,0,1,16.619-20.284,18.583,18.583,0,0,0,1.715-1.011,7.918,7.918,0,0,1,4.209-1.663,4.761,4.761,0,0,1,.606.039c.161.458.575.554,1.013.656a2.909,2.909,0,0,1,.6.186,5.947,5.947,0,0,1,1.659-.263,2.876,2.876,0,0,1,2.339,1.013,1.035,1.035,0,0,1,.4-.111c.26,0,.3.226.356.488s.105.538.382.645a1.075,1.075,0,0,1-.282,1.179l-.088.094a4.7,4.7,0,0,1-1.81,1.024c-.306.121-.622.246-.9.385a4.689,4.689,0,0,0-3.669,2.632,1.282,1.282,0,0,1,.292.38c.16.267.325.542.667.542a.993.993,0,0,0,.417-.109,3.965,3.965,0,0,0,.928,2.7,4.9,4.9,0,0,1,1.015,2.557c.286.528.616,1.044.936,1.542a14.809,14.809,0,0,1,1.414,2.562,45.748,45.748,0,0,0,2.1,6.68,41.736,41.736,0,0,1,2.229,7.366c.633.242.814.777,1.006,1.343a2.566,2.566,0,0,0,.608,1.129c.188.289.363.615.549.959.7,1.292,1.486,2.757,3.287,2.844a2.512,2.512,0,0,1,.368.691c.216.52.44,1.059,1.056,1.059a1.639,1.639,0,0,0,.574-.123,2.1,2.1,0,0,1,.946.989,1.765,1.765,0,0,0,1.125,1.006,3.74,3.74,0,0,0,.461,1.519,2.33,2.33,0,0,0-1.126,1.321.342.342,0,0,0,.114.3,3.8,3.8,0,0,0-2.4,1.407.54.54,0,0,0,.037.548.654.654,0,0,1-.481.131h-.21c-.062,0-.112,0-.157.005Zm-20.6-37.265c-6.291,6.624-9.8,14.452-12.861,21.9h.957c5.723-5.53,9.505-12.489,11.9-21.9ZM194.43,159.408c-.15,0-.3-.006-.446-.017a7.436,7.436,0,0,1-5.449-3.411l-.694-.6c-3.709-3.233-7.27-6.837-6.551-12.195a32.075,32.075,0,0,1,3.386-12.777A96.862,96.862,0,0,1,191.6,118.77a1.736,1.736,0,0,1,1.442-.776,4.78,4.78,0,0,1,1.559.381l.028.01a5.046,5.046,0,0,0,1.641.392c.058,0,.116,0,.173-.007a15.939,15.939,0,0,0,6.02,1.975c.9.171,1.833.348,2.749.584a.878.878,0,0,1,.609-.209,1.194,1.194,0,0,1,.693.209,1.315,1.315,0,0,0,1.2.541,1.464,1.464,0,0,1,1.039.346c2.19.272,3.641.909,4.565,2A3.24,3.24,0,0,1,211.244,127a1.254,1.254,0,0,0-.425-.072,3.139,3.139,0,0,0-1.314.411l-.1.047a2.722,2.722,0,0,1-1.045.365c-.361,0-.594-.256-.734-.807a2.156,2.156,0,0,0-1.483-.647,5.133,5.133,0,0,0-2.731,1.327,6.307,6.307,0,0,1-2.629,1.38c-5.367,5.36-8.342,11.556-8.841,18.417l.066.546c.154,1.195.409,2.412,1.659,3.019,1.758-.129,4.5-1.886,7.521-4.822a29.2,29.2,0,0,0,5.778-7.367c.219-.845-.623-1.327-1.3-1.714-.176-.1-.342-.2-.48-.29l-1.15-.3a3.479,3.479,0,0,1-2.481-1.614,5.426,5.426,0,0,1,2.6-4.652.973.973,0,0,0,.239.031,1.322,1.322,0,0,0,.908-.5l.044-.044c.237-.237.461-.46.748-.46a.906.906,0,0,1,.572.264.985.985,0,0,1,.512-.163,1.377,1.377,0,0,1,.871.475l.018.016a1.46,1.46,0,0,0,.935.49,1.213,1.213,0,0,0,.62-.2l.9.321c1.639.6,3.446,1.37,4.141,3.035a7.408,7.408,0,0,0-.011,3.236c.22,1.55.447,3.152-.779,4.464.358,1.254-.392,2.378-1.117,3.465a12.53,12.53,0,0,0-.789,1.291l-.9,1.066a68.049,68.049,0,0,1-7.687,7.916C199.891,157.9,196.874,159.408,194.43,159.408ZM138.1,145.032h0l-7.283-2.853v-1.261l-.017-1.355,7.265-2.87,7.3,2.835v2.65l-7.265,2.853Zm85.962-.108h0l-7.188-2.835.017-1.243.072-1.389,7.377-2.864,7.189,2.864-.055,1.3-.074,1.337-7.337,2.835ZM66.818,57.275H50.206L97.478,30.417l25.968,14.8,52.091-29.749L201.4,30.416l-8.254,4.731L175.48,25.01,123.563,54.7l-8.486-4.71.048-.028-17.7-10-30.6,17.312Zm201.09-.234h-16.7L215.62,37.208l-22.4,13.126h-16.6l39.053-22.672L267.905,57.04ZM116.765,36.407h0l-8.671-4.678,18.89-10.616,15.457,8.512-8.3,4.845-7.215-3.812-10.16,5.749Z" transform="translate(-0.001 0)" fill="#fff"/>
  </g>
  <path id="FeaturedEvent" d="M291.96,28.34a5.7,5.7,0,0,1-1.48-4.181V10.52h-3.84V8.8h3.84V4.24h2V8.8h6.64v1.72h-6.64V23.96a4.415,4.415,0,0,0,.98,3.1,3.758,3.758,0,0,0,2.9,1.059,4.641,4.641,0,0,0,3.24-1.159l.84,1.4a5.021,5.021,0,0,1-1.9,1.1,7.462,7.462,0,0,1-2.38.381A5.637,5.637,0,0,1,291.96,28.34Zm-49.76.139a9.861,9.861,0,0,1-3.82-3.759A10.79,10.79,0,0,1,237,19.24a11.355,11.355,0,0,1,1.3-5.46A9.6,9.6,0,0,1,241.88,10,10.345,10.345,0,0,1,252.1,9.98a9.526,9.526,0,0,1,3.56,3.74,11.238,11.238,0,0,1,1.3,5.441l-.04.56H238.96a8.723,8.723,0,0,0,1.24,4.34A7.926,7.926,0,0,0,243.34,27a9.445,9.445,0,0,0,4.46,1.04,9.561,9.561,0,0,0,3.78-.741,7.363,7.363,0,0,0,2.9-2.18l1.159,1.32a8.909,8.909,0,0,1-3.42,2.52,11.9,11.9,0,0,1-10.02-.481Zm-85.32,0a9.739,9.739,0,0,1-3.7-3.759,11.047,11.047,0,0,1-1.34-5.48,11.155,11.155,0,0,1,1.34-5.5,9.555,9.555,0,0,1,3.7-3.76,10.5,10.5,0,0,1,5.28-1.34,9.634,9.634,0,0,1,5.02,1.32,9.39,9.39,0,0,1,3.5,3.68V0h2V29.68h-1.96V24.76a8.969,8.969,0,0,1-3.48,3.76,9.814,9.814,0,0,1-5.08,1.32A10.379,10.379,0,0,1,156.88,28.48Zm-23.719,0a9.857,9.857,0,0,1-3.82-3.759,10.8,10.8,0,0,1-1.38-5.48,11.354,11.354,0,0,1,1.3-5.46A9.6,9.6,0,0,1,132.84,10a10.347,10.347,0,0,1,10.22-.02,9.524,9.524,0,0,1,3.559,3.74,11.239,11.239,0,0,1,1.3,5.441l-.041.56H129.92a8.723,8.723,0,0,0,1.239,4.34A7.938,7.938,0,0,0,134.3,27a9.451,9.451,0,0,0,4.46,1.04,9.561,9.561,0,0,0,3.78-.741,7.353,7.353,0,0,0,2.9-2.18l1.16,1.32a8.916,8.916,0,0,1-3.42,2.52,11.9,11.9,0,0,1-10.02-.481ZM89.8,27.56Q87.48,25.28,87.48,21V8.8h2V20.84a7.36,7.36,0,0,0,1.8,5.36,6.784,6.784,0,0,0,5.081,1.84,7.275,7.275,0,0,0,5.58-2.2A8.313,8.313,0,0,0,104,19.92V8.8h2V29.68H104.08V25.2A7.744,7.744,0,0,1,101,28.62a9.173,9.173,0,0,1-4.8,1.22A8.736,8.736,0,0,1,89.8,27.56Zm-16.12.78A5.692,5.692,0,0,1,72.2,24.16V10.52H68.36V8.8H72.2V4.24h2V8.8h6.64v1.72H74.2V23.96a4.415,4.415,0,0,0,.98,3.1,3.758,3.758,0,0,0,2.9,1.059,4.644,4.644,0,0,0,3.24-1.159l.84,1.4a5.028,5.028,0,0,1-1.9,1.1,7.467,7.467,0,0,1-2.381.381A5.636,5.636,0,0,1,73.68,28.34ZM48.62,28.2a5.291,5.291,0,0,1-2.02-4.32,5.333,5.333,0,0,1,1.859-4.22q1.86-1.62,5.94-1.62h7.16V16.36a5.88,5.88,0,0,0-1.58-4.441A6.413,6.413,0,0,0,55.36,10.4a11.121,11.121,0,0,0-3.98.72,9.975,9.975,0,0,0-3.22,1.92l-1-1.44a11.105,11.105,0,0,1,3.76-2.18,13.655,13.655,0,0,1,4.6-.78,8.31,8.31,0,0,1,5.96,1.98,7.663,7.663,0,0,1,2.08,5.82V29.68H61.64V25.96a6.942,6.942,0,0,1-2.921,2.86,9.675,9.675,0,0,1-4.6,1.021A8.48,8.48,0,0,1,48.62,28.2Zm-21.1.28A9.863,9.863,0,0,1,23.7,24.72a10.8,10.8,0,0,1-1.38-5.48,11.354,11.354,0,0,1,1.3-5.46A9.6,9.6,0,0,1,27.2,10a10.347,10.347,0,0,1,10.22-.02,9.524,9.524,0,0,1,3.56,3.74,11.239,11.239,0,0,1,1.3,5.441l-.041.56H24.28a8.714,8.714,0,0,0,1.24,4.34A7.929,7.929,0,0,0,28.66,27a9.451,9.451,0,0,0,4.46,1.04A9.561,9.561,0,0,0,36.9,27.3a7.353,7.353,0,0,0,2.9-2.18l1.16,1.32a8.909,8.909,0,0,1-3.42,2.52,11.9,11.9,0,0,1-10.02-.481Zm252.32,1.2V17.64a7.413,7.413,0,0,0-1.779-5.36,6.607,6.607,0,0,0-4.981-1.84,7.677,7.677,0,0,0-5.8,2.2,8.171,8.171,0,0,0-2.12,5.92V29.68h-2V8.8h1.92v4.52a7.939,7.939,0,0,1,3.22-3.44,9.913,9.913,0,0,1,5.06-1.24,8.377,8.377,0,0,1,6.2,2.28q2.28,2.28,2.281,6.56v12.2Zm-56.4,0L214.04,8.8h2.12l8.32,18.679L232.88,8.8h2.039l-9.44,20.88Zm-31.4,0v-28h18.72V3.52H194.08V14.56H209v1.8H194.08V27.84h17.28v1.84Zm-77.56,0V8.8h1.92V13.36a7.225,7.225,0,0,1,3-3.5,9.5,9.5,0,0,1,4.96-1.22V10.6l-.481-.041a6.941,6.941,0,0,0-5.44,2.181,8.739,8.739,0,0,0-1.96,6.06V29.68ZM0,29.68v-28H18.72V3.52H2.04V15.48H16.96v1.84H2.04V29.68Z" transform="translate(158.06 304.32)" fill="#fff"/>
</svg>
