<?xml version="1.0" encoding="UTF-8"?>
<svg width="1444px" height="535px" viewBox="0 0 1444 535" version="1.1" xmlns="http://www.w3.org/2000/svg" xmlns:xlink="http://www.w3.org/1999/xlink">
    <title>footer bg</title>
    <defs>
        <linearGradient x1="50%" y1="15.8874199%" x2="50%" y2="42.041266%" id="linearGradient-1">
            <stop stop-color="#B72E0A" offset="0%"></stop>
            <stop stop-color="#D84018" offset="100%"></stop>
        </linearGradient>
        <linearGradient x1="50%" y1="0%" x2="50%" y2="36.0955329%" id="linearGradient-2">
            <stop stop-color="#570A55" offset="0%"></stop>
            <stop stop-color="#811D88" offset="100%"></stop>
        </linearGradient>
        <linearGradient x1="50%" y1="0%" x2="50%" y2="31.8059959%" id="linearGradient-3">
            <stop stop-color="#4F0C53" offset="0%"></stop>
            <stop stop-color="#4D1766" offset="100%"></stop>
        </linearGradient>
        <linearGradient x1="0%" y1="47.3095698%" x2="100%" y2="47.1201294%" id="linearGradient-4">
            <stop stop-color="#63003F" offset="0%"></stop>
            <stop stop-color="#180211" offset="100%"></stop>
        </linearGradient>
    </defs>
    <g id="Symbols" stroke="none" stroke-width="1" fill="none" fill-rule="evenodd">
        <g id="organisms/footer" transform="translate(1.000000, 0.000000)">
            <g id="footer" transform="translate(-1.000000, 0.000000)">
                <g id="footer-bg">
                    <rect id="Rectangle" fill="url(#linearGradient-1)" x="1" y="0" width="1443" height="390"></rect>
                    <polygon id="Fill-1" fill="url(#linearGradient-2)" points="618.612008 53 596.861305 55.5880419 584.434849 63.8675353 577.532152 73.525077 560.964078 80.4233211 547.157082 88.7028145 531.22002 89.9224113 519.544693 95.6026591 513.686209 98.8533166 479.505847 95.6026591 456.035075 95.6026591 438.086462 105.260201 418.757309 105.260201 388.38384 113.538094 327.6337 141.134271 300.021311 148.032515 279.311618 148.032515 264.124083 154.93236 232.480583 154.93236 214.421462 156.310408 195.092309 160.450955 184.047993 153.55111 171.621537 153.55111 150.911845 154.93236 138.485388 163.210253 69.4536138 181.147288 1 201.84202 1 535 1444 535 1444 222.538353 1346.55346 172.867794 1331.36592 163.210253 1315.3712 161.400064 1299.03055 152.169861 1274.759 153.55111 1260.95361 145.271617 1220.91476 139.753022 1193.30077 149.412164 1183.637 149.412164 1168.45106 163.210253 1132.55223 142.51392 1102.17876 125.956534 1102.17876 116.297391 1085.61069 105.260201 1049.71346 85.9435169 1022.10107 66.626833 1012.4373 73.525077 997.249762 80.4233211 986.203846 88.7028145 965.571028 81.8749934 952.781019 67.6735735 937.151455 65.544881 928.152324 60.3383873 916.308834 61.0474179 903.520426 66.9645428 890.940221 76.2859752 882.655383 88.7028145 869.179909 83.7684093 851.180046 90.1576878 832.95116 105.260201 823.708593 95.128905 806.720911 98.3619568 795.674994 77.665624 786.051257 73.8275754 775.868578 69.3317129 763.317201 68.3842047 751.47371 59.8646331 733.545917 55.5880419 722.556054 55.5880419 705.765364 57.7327396 679.0034 70.7513747 676.634701 66.2555122 661.240566 69.3317129 657.689921 75.2488378 650.705545 70.7657794 635.426721 67.2014199"></polygon>
                    <path d="M195,213.055355 C229.524312,204.781947 301.333022,185.47573 301.333022,185.47573 L337.238178,167.548415 L349.667379,167.548415 L382.809244,151 L403.523511,160.653908 L415.952712,151 L453.238712,168.927316 C453.238712,168.927316 472.572134,184.096829 480.8572,182.028477 C489.143868,179.960125 498.809778,189.612434 498.809778,189.612434 L514.000667,192.370236 L552.667512,182.028477 L617.572001,182.028477 L678.333956,195.128039 L705.952445,206.160848 L891,323.377052 L891,535 L195,535 L195,213.055355 Z" id="Fill-2" fill="url(#linearGradient-3)"></path>
                    <path d="M1,141 L16.9883119,150.660834 L41.8396226,167.223865 L69.4536138,181.026657 L84.6395472,181.026657 L108.110319,197.589688 L142.627007,204.490284 L152.292384,211.39088 L173.002077,211.39088 L184.046392,211.39088 L218.56308,211.39088 L248.93815,221.053315 L272.408921,230.714149 L293.118614,240.376584 L320.731003,240.376584 L362.150388,230.714149 L395.286537,223.813553 L432.564304,219.673196 L465.698851,219.673196 L512.641996,233.474387 L558.202999,255.559495 L576.151613,262.460091 L606.525081,234.856107 L639.66123,222.433434 L692.126532,200.349926 C692.126532,200.349926 744.590232,161.703388 752.873468,156.181311 C761.158306,150.660834 773.584762,143.760238 794.294455,157.563031 C815.004148,171.364222 860.566752,192.067611 860.566752,192.067611 L890.938619,215.532838 C890.938619,215.532838 913.028851,223.813553 932.359606,221.053315 C951.688759,218.293076 982.062228,201.730046 1008.29568,201.730046 C1034.52753,201.730046 1045.57184,194.82945 1055.23722,192.067611 C1064.901,189.307372 1080.08853,187.927253 1099.41769,186.547134 C1118.74684,185.167015 1160.16622,181.026657 1172.59268,179.646538 C1185.01753,178.266419 1212.63153,167.223865 1212.63153,167.223865 L1238.86338,167.223865 L1248.52875,161.703388 L1283.04384,164.463627 L1353.45615,165.843746 L1401.77984,167.223865 L1444,176.8863 L1444,535 L1,535 L1,141 Z" id="Fill-5" fill="url(#linearGradient-4)"></path>
                </g>
            </g>
        </g>
    </g>
</svg>