<svg xmlns="http://www.w3.org/2000/svg" width="17" height="31" viewBox="0 0 17 31">
  <path id="icon_arrows_right" data-name="icon/arrows/right" d="M-.654,31a.659.659,0,0,0,.472-.2.641.641,0,0,0-.02-.913L-15.4,15.5-.2,1.112A.641.641,0,0,0-.182.2.66.66,0,0,0-1.106.179L-16.8,15.034a.644.644,0,0,0-.2.466.644.644,0,0,0,.2.466L-1.106,30.82A.654.654,0,0,0-.654,31" transform="translate(17)" fill="#fff"/>
</svg>
