<?xml version="1.0" encoding="UTF-8"?>
<svg width="8px" height="16px" viewBox="0 0 8 16" version="1.1" xmlns="http://www.w3.org/2000/svg" xmlns:xlink="http://www.w3.org/1999/xlink">
    <title>5F0F25AC-E936-4E2E-A250-BFC504D53A89</title>
    <defs>
        <path d="M14.0710678,6.66133815e-16 L14.7781746,0.707106781 L7.70710678,7.77817459 L7.389,7.46 L7.07106781,7.77817459 L3.13338244e-12,0.707106781 L0.707106781,6.66133815e-16 L7.389,6.682 L14.0710678,6.66133815e-16 Z" id="path-1"></path>
    </defs>
    <g id="Home-Page" stroke="none" stroke-width="1" fill="none" fill-rule="evenodd">
        <g id="Home---Booking-Dates" transform="translate(-776.000000, -360.000000)">
            <g id="calendar-copy" transform="translate(629.000000, 346.000000)">
                <g id="simple-arrow-copy" transform="translate(151.000000, 22.000000) rotate(-90.000000) translate(-151.000000, -22.000000) translate(143.500000, 18.000000)">
                    <mask id="mask-2" fill="white">
                        <use xlink:href="#path-1"></use>
                    </mask>
                    <path stroke="#979797" d=""></path>
                    <g id="icon/color-white" mask="url(#mask-2)" fill="#ffffff">
                        <rect id="Rectangle-8" x="0" y="0" width="15" height="8"></rect>
                    </g>
                </g>
            </g>
        </g>
    </g>
</svg>