<?xml version="1.0" encoding="UTF-8"?>
<svg width="42px" height="42px" viewBox="0 0 42 42" version="1.1" xmlns="http://www.w3.org/2000/svg" xmlns:xlink="http://www.w3.org/1999/xlink">
    <title>icons/linkedIn</title>
    <defs>
        <filter x="-88.5%" y="-88.5%" width="280.8%" height="280.8%" filterUnits="objectBoundingBox" id="filter-1">
            <feOffset dx="0" dy="4" in="SourceAlpha" result="shadowOffsetOuter1"></feOffset>
            <feGaussianBlur stdDeviation="4" in="shadowOffsetOuter1" result="shadowBlurOuter1"></feGaussianBlur>
            <feColorMatrix values="0 0 0 0 0   0 0 0 0 0   0 0 0 0 0  0 0 0 0.25 0" type="matrix" in="shadowBlurOuter1" result="shadowMatrixOuter1"></feColorMatrix>
            <feMerge>
                <feMergeNode in="shadowMatrixOuter1"></feMergeNode>
                <feMergeNode in="SourceGraphic"></feMergeNode>
            </feMerge>
        </filter>
        <polygon id="path-2" points="8.66666667e-05 -0.00026 16.4666667 -0.00026 16.4666667 17.3330733 8.66666667e-05 17.3330733"></polygon>
    </defs>
    <g id="Atoms" stroke="none" stroke-width="1" fill="none" fill-rule="evenodd">
        <g id="assets" transform="translate(-1223.000000, -563.000000)">
            <g id="Icons/Social/linkedIn" transform="translate(1231.000000, 567.000000)">
                <g id="Group-8" filter="url(#filter-1)">
                    <polygon id="Fill-1" fill="#FFFFFF" points="0 26 6.06666667 26 6.06666667 8.66666667 0 8.66666667"></polygon>
                    <g id="Group-7">
                        <path d="M3.03342,6.06666667 C4.70695333,6.06666667 6.06675333,4.70773333 6.06675333,3.03333333 C6.06675333,1.35806667 4.70695333,0 3.03342,0 C1.35642,0 8.66666667e-05,1.35806667 8.66666667e-05,3.03333333 C8.66666667e-05,4.70773333 1.35642,6.06666667 3.03342,6.06666667" id="Fill-2" fill="#FFFFFF"></path>
                        <g id="Group-6" transform="translate(9.533333, 8.666667)">
                            <mask id="mask-3" fill="white">
                                <use xlink:href="#path-2"></use>
                            </mask>
                            <g id="Clip-5"></g>
                            <path d="M16.4667533,7.80754 C16.4667533,3.13100667 15.4579533,-0.00026 10.0057533,-0.00026 C7.38495333,-0.00026 5.62648667,0.973006667 4.90715333,2.33887333 L4.83262,2.33887333 L4.83262,-0.00026 L8.66666667e-05,-0.00026 L8.66666667e-05,17.3330733 L5.05102,17.3330733 L5.05102,8.74180667 C5.05102,6.47634 5.47915333,4.28280667 8.28282,4.28280667 C11.0431533,4.28280667 11.2667533,6.87327333 11.2667533,8.88740667 L11.2667533,17.3330733 L16.4667533,17.3330733 L16.4667533,7.80754 Z" id="Fill-4" fill="#FFFFFF" mask="url(#mask-3)"></path>
                        </g>
                    </g>
                </g>
            </g>
        </g>
    </g>
</svg>