<?xml version="1.0" encoding="UTF-8"?>
<svg width="47px" height="39px" viewBox="0 0 47 39" version="1.1" xmlns="http://www.w3.org/2000/svg" xmlns:xlink="http://www.w3.org/1999/xlink">
    <title>icons/youTube</title>
    <defs>
        <filter x="-74.2%" y="-100.0%" width="248.4%" height="300.0%" filterUnits="objectBoundingBox" id="filter-1">
            <feOffset dx="0" dy="4" in="SourceAlpha" result="shadowOffsetOuter1"></feOffset>
            <feGaussianBlur stdDeviation="4" in="shadowOffsetOuter1" result="shadowBlurOuter1"></feGaussianBlur>
            <feColorMatrix values="0 0 0 0 0   0 0 0 0 0   0 0 0 0 0  0 0 0 0.25 0" type="matrix" in="shadowBlurOuter1" result="shadowMatrixOuter1"></feColorMatrix>
            <feMerge>
                <feMergeNode in="shadowMatrixOuter1"></feMergeNode>
                <feMergeNode in="SourceGraphic"></feMergeNode>
            </feMerge>
        </filter>
        <polygon id="path-2" points="-9.99999993e-05 0 30.9999 0 30.9999 23 -9.99999993e-05 23"></polygon>
    </defs>
    <g id="Atoms" stroke="none" stroke-width="1" fill="none" fill-rule="evenodd">
        <g id="assets" transform="translate(-1163.000000, -566.000000)">
            <g id="Icons/Social/youTube" transform="translate(1171.000000, 570.000000)">
                <g id="Group-3" filter="url(#filter-1)">
                    <mask id="mask-3" fill="white">
                        <use xlink:href="#path-2"></use>
                    </mask>
                    <g id="Clip-2"></g>
                    <path d="M12.3007,15.7424545 L12.2986333,6.55395455 L20.6748333,11.1654545 L12.3007,15.7424545 Z M30.6888667,4.96068182 C30.6888667,4.96068182 30.3861,2.70668182 29.4581667,1.71454545 C28.2791333,0.414 26.9575,0.404590909 26.3540333,0.330363636 C22.0119667,0 15.5081667,0 15.5081667,0 L15.4937,0 C15.4937,0 8.98473333,0 4.64783333,0.330363636 C4.0423,0.404590909 2.7217,0.414 1.54163333,1.71454545 C0.612666667,2.70668182 0.3099,4.96068182 0.3099,4.96068182 C0.3099,4.96068182 -9.99999993e-05,7.60777273 -9.99999993e-05,10.2538182 L-9.99999993e-05,12.7346818 C-9.99999993e-05,15.3828182 0.3099,18.0299091 0.3099,18.0299091 C0.3099,18.0299091 0.612666667,20.2818182 1.54163333,21.2739545 C2.7217,22.5765909 4.2717,22.5337273 4.9599,22.6706818 C7.44093333,22.9215909 15.4999,23 15.4999,23 C15.4999,23 22.0119667,22.9885 26.3540333,22.6591818 C26.9575,22.5828636 28.2791333,22.5765909 29.4581667,21.2739545 C30.3861,20.2818182 30.6888667,18.0299091 30.6888667,18.0299091 C30.6888667,18.0299091 30.9999,15.3828182 30.9999,12.7346818 L30.9999,10.2538182 C30.9999,7.60777273 30.6888667,4.96068182 30.6888667,4.96068182 L30.6888667,4.96068182 Z" id="Fill-1" fill="#FFFFFF" mask="url(#mask-3)"></path>
                </g>
            </g>
        </g>
    </g>
</svg>